-- Merging decision tree log ---
manifest
ADDED from C:\Qt\MP\ATSP\Application\build-atomic-Android_Qt_5_12_11_Clang_armeabi_v7a-Debug\android-build\AndroidManifest.xml:2:1-147:12
INJECTED from C:\Qt\MP\ATSP\Application\build-atomic-Android_Qt_5_12_11_Clang_armeabi_v7a-Debug\android-build\AndroidManifest.xml:2:1-147:12
MERGED from [com.android.support:support-v4:28.0.0] C:\Users\PaulineBERTA\.gradle\caches\transforms-1\files-1.1\support-v4-28.0.0.aar\3b1a87f47296f990486a1eeaf84d90ee\AndroidManifest.xml:17:1-22:12
MERGED from [com.android.support:appcompat-v7:28.0.0] C:\Users\PaulineBERTA\.gradle\caches\transforms-1\files-1.1\appcompat-v7-28.0.0.aar\07df098e0e276194543bf623d3025814\AndroidManifest.xml:17:1-22:12
MERGED from [com.android.support:support-media-compat:28.0.0] C:\Users\PaulineBERTA\.gradle\caches\transforms-1\files-1.1\support-media-compat-28.0.0.aar\553f4f01f7c3bc4d60168f63666f44f3\AndroidManifest.xml:17:1-22:12
MERGED from [com.android.support:support-fragment:28.0.0] C:\Users\PaulineBERTA\.gradle\caches\transforms-1\files-1.1\support-fragment-28.0.0.aar\3bc4be949505e77dbd24ee8be7fe5897\AndroidManifest.xml:17:1-22:12
MERGED from [com.android.support:animated-vector-drawable:28.0.0] C:\Users\PaulineBERTA\.gradle\caches\transforms-1\files-1.1\animated-vector-drawable-28.0.0.aar\d1423197ddd73472225852e94684ed6d\AndroidManifest.xml:17:1-22:12
MERGED from [com.android.support:support-core-ui:28.0.0] C:\Users\PaulineBERTA\.gradle\caches\transforms-1\files-1.1\support-core-ui-28.0.0.aar\8506b287158b16f5e176e351237ac07f\AndroidManifest.xml:17:1-22:12
MERGED from [com.android.support:support-core-utils:28.0.0] C:\Users\PaulineBERTA\.gradle\caches\transforms-1\files-1.1\support-core-utils-28.0.0.aar\a4d816ea0ee00e0994134211a8328a5d\AndroidManifest.xml:17:1-22:12
MERGED from [com.android.support:support-vector-drawable:28.0.0] C:\Users\PaulineBERTA\.gradle\caches\transforms-1\files-1.1\support-vector-drawable-28.0.0.aar\dcf43c69facf5ff306c2b46fa08a69a5\AndroidManifest.xml:17:1-22:12
MERGED from [com.android.support:loader:28.0.0] C:\Users\PaulineBERTA\.gradle\caches\transforms-1\files-1.1\loader-28.0.0.aar\9ce0c60ec09c4d9690e32994ec9e9e60\AndroidManifest.xml:17:1-22:12
MERGED from [com.android.support:viewpager:28.0.0] C:\Users\PaulineBERTA\.gradle\caches\transforms-1\files-1.1\viewpager-28.0.0.aar\02e9745f0a087f01ce202310925f435b\AndroidManifest.xml:17:1-22:12
MERGED from [com.android.support:coordinatorlayout:28.0.0] C:\Users\PaulineBERTA\.gradle\caches\transforms-1\files-1.1\coordinatorlayout-28.0.0.aar\661ea7414487a2fad7e36d4af2e4545c\AndroidManifest.xml:17:1-22:12
MERGED from [com.android.support:drawerlayout:28.0.0] C:\Users\PaulineBERTA\.gradle\caches\transforms-1\files-1.1\drawerlayout-28.0.0.aar\d2aae295655420bcd5b2bff8582b51ef\AndroidManifest.xml:17:1-22:12
MERGED from [com.android.support:slidingpanelayout:28.0.0] C:\Users\PaulineBERTA\.gradle\caches\transforms-1\files-1.1\slidingpanelayout-28.0.0.aar\fe32d2fbe48117346e203b4656340f37\AndroidManifest.xml:17:1-22:12
MERGED from [com.android.support:customview:28.0.0] C:\Users\PaulineBERTA\.gradle\caches\transforms-1\files-1.1\customview-28.0.0.aar\2857ab5281b05c490ddb1b9db245c32e\AndroidManifest.xml:17:1-22:12
MERGED from [com.android.support:swiperefreshlayout:28.0.0] C:\Users\PaulineBERTA\.gradle\caches\transforms-1\files-1.1\swiperefreshlayout-28.0.0.aar\3a0570ab0da7ba40e96cbc81c4342348\AndroidManifest.xml:17:1-22:12
MERGED from [com.android.support:asynclayoutinflater:28.0.0] C:\Users\PaulineBERTA\.gradle\caches\transforms-1\files-1.1\asynclayoutinflater-28.0.0.aar\ba522506652cc8523e77be208ce17555\AndroidManifest.xml:17:1-22:12
MERGED from [com.android.support:support-compat:28.0.0] C:\Users\PaulineBERTA\.gradle\caches\transforms-1\files-1.1\support-compat-28.0.0.aar\ba007380d2c40b39665ddda7313448d1\AndroidManifest.xml:17:1-24:12
MERGED from [com.android.support:versionedparcelable:28.0.0] C:\Users\PaulineBERTA\.gradle\caches\transforms-1\files-1.1\versionedparcelable-28.0.0.aar\d600333a34df2a3eb87e70e91d9c4bbd\AndroidManifest.xml:17:1-25:12
MERGED from [com.android.support:cursoradapter:28.0.0] C:\Users\PaulineBERTA\.gradle\caches\transforms-1\files-1.1\cursoradapter-28.0.0.aar\280caf606907bfcd20a0e0b63a5271db\AndroidManifest.xml:17:1-22:12
MERGED from [android.arch.lifecycle:runtime:1.1.1] C:\Users\PaulineBERTA\.gradle\caches\transforms-1\files-1.1\runtime-1.1.1.aar\773cad237599956d3e9bafcb0ed9cc58\AndroidManifest.xml:17:1-22:12
MERGED from [com.android.support:documentfile:28.0.0] C:\Users\PaulineBERTA\.gradle\caches\transforms-1\files-1.1\documentfile-28.0.0.aar\5afdfeb1fb8872f706da513ebef52617\AndroidManifest.xml:17:1-22:12
MERGED from [com.android.support:localbroadcastmanager:28.0.0] C:\Users\PaulineBERTA\.gradle\caches\transforms-1\files-1.1\localbroadcastmanager-28.0.0.aar\bf34ee56bbe0b28b7480391b1e18e1ea\AndroidManifest.xml:17:1-22:12
MERGED from [com.android.support:print:28.0.0] C:\Users\PaulineBERTA\.gradle\caches\transforms-1\files-1.1\print-28.0.0.aar\f47f25f72b034b4af72b3e767ffc0b87\AndroidManifest.xml:17:1-22:12
MERGED from [com.android.support:interpolator:28.0.0] C:\Users\PaulineBERTA\.gradle\caches\transforms-1\files-1.1\interpolator-28.0.0.aar\e94d858a3f8b7beb0f627521d959f3b1\AndroidManifest.xml:17:1-22:12
MERGED from [android.arch.lifecycle:viewmodel:1.1.1] C:\Users\PaulineBERTA\.gradle\caches\transforms-1\files-1.1\viewmodel-1.1.1.aar\24798652533ef04fc960abce1edbad61\AndroidManifest.xml:17:1-22:12
MERGED from [android.arch.lifecycle:livedata:1.1.1] C:\Users\PaulineBERTA\.gradle\caches\transforms-1\files-1.1\livedata-1.1.1.aar\3b41b2a799dd3dc741a2e67f0c98933e\AndroidManifest.xml:17:1-22:12
MERGED from [android.arch.lifecycle:livedata-core:1.1.1] C:\Users\PaulineBERTA\.gradle\caches\transforms-1\files-1.1\livedata-core-1.1.1.aar\26d1c5965416894186b3da0548803232\AndroidManifest.xml:17:1-22:12
MERGED from [android.arch.core:runtime:1.1.1] C:\Users\PaulineBERTA\.gradle\caches\transforms-1\files-1.1\runtime-1.1.1.aar\12e0cb2f586bc367aa6f82d0014e4732\AndroidManifest.xml:17:1-22:12
INJECTED from C:\Qt\MP\ATSP\Application\build-atomic-Android_Qt_5_12_11_Clang_armeabi_v7a-Debug\android-build\AndroidManifest.xml:2:1-147:12
	package
		ADDED from C:\Qt\MP\ATSP\Application\build-atomic-Android_Qt_5_12_11_Clang_armeabi_v7a-Debug\android-build\AndroidManifest.xml:2:11-47
	android:versionName
		ADDED from C:\Qt\MP\ATSP\Application\build-atomic-Android_Qt_5_12_11_Clang_armeabi_v7a-Debug\android-build\AndroidManifest.xml:2:107-156
		INJECTED from C:\Qt\MP\ATSP\Application\build-atomic-Android_Qt_5_12_11_Clang_armeabi_v7a-Debug\android-build\AndroidManifest.xml
		INJECTED from C:\Qt\MP\ATSP\Application\build-atomic-Android_Qt_5_12_11_Clang_armeabi_v7a-Debug\android-build\AndroidManifest.xml
	xmlns:android
		ADDED from C:\Qt\MP\ATSP\Application\build-atomic-Android_Qt_5_12_11_Clang_armeabi_v7a-Debug\android-build\AndroidManifest.xml:2:48-106
	android:versionCode
		ADDED from C:\Qt\MP\ATSP\Application\build-atomic-Android_Qt_5_12_11_Clang_armeabi_v7a-Debug\android-build\AndroidManifest.xml:2:157-182
	android:installLocation
		ADDED from C:\Qt\MP\ATSP\Application\build-atomic-Android_Qt_5_12_11_Clang_armeabi_v7a-Debug\android-build\AndroidManifest.xml:2:183-213
uses-feature#android.hardware.usb.accessory
ADDED from C:\Qt\MP\ATSP\Application\build-atomic-Android_Qt_5_12_11_Clang_armeabi_v7a-Debug\android-build\AndroidManifest.xml:3:5-66
	android:name
		ADDED from C:\Qt\MP\ATSP\Application\build-atomic-Android_Qt_5_12_11_Clang_armeabi_v7a-Debug\android-build\AndroidManifest.xml:3:19-64
uses-permission#com.samsung.android.knox.permission.KNOX_HW_CONTROL
ADDED from C:\Qt\MP\ATSP\Application\build-atomic-Android_Qt_5_12_11_Clang_armeabi_v7a-Debug\android-build\AndroidManifest.xml:4:1-86
	android:name
		ADDED from C:\Qt\MP\ATSP\Application\build-atomic-Android_Qt_5_12_11_Clang_armeabi_v7a-Debug\android-build\AndroidManifest.xml:4:18-84
uses-permission#android.permission.FOREGROUND_SERVICE
ADDED from C:\Qt\MP\ATSP\Application\build-atomic-Android_Qt_5_12_11_Clang_armeabi_v7a-Debug\android-build\AndroidManifest.xml:5:1-72
	android:name
		ADDED from C:\Qt\MP\ATSP\Application\build-atomic-Android_Qt_5_12_11_Clang_armeabi_v7a-Debug\android-build\AndroidManifest.xml:5:18-70
application
ADDED from C:\Qt\MP\ATSP\Application\build-atomic-Android_Qt_5_12_11_Clang_armeabi_v7a-Debug\android-build\AndroidManifest.xml:7:1-128:19
MERGED from [com.android.support:support-compat:28.0.0] C:\Users\PaulineBERTA\.gradle\caches\transforms-1\files-1.1\support-compat-28.0.0.aar\ba007380d2c40b39665ddda7313448d1\AndroidManifest.xml:22:5-94
MERGED from [com.android.support:support-compat:28.0.0] C:\Users\PaulineBERTA\.gradle\caches\transforms-1\files-1.1\support-compat-28.0.0.aar\ba007380d2c40b39665ddda7313448d1\AndroidManifest.xml:22:5-94
MERGED from [com.android.support:versionedparcelable:28.0.0] C:\Users\PaulineBERTA\.gradle\caches\transforms-1\files-1.1\versionedparcelable-28.0.0.aar\d600333a34df2a3eb87e70e91d9c4bbd\AndroidManifest.xml:22:5-23:19
MERGED from [com.android.support:versionedparcelable:28.0.0] C:\Users\PaulineBERTA\.gradle\caches\transforms-1\files-1.1\versionedparcelable-28.0.0.aar\d600333a34df2a3eb87e70e91d9c4bbd\AndroidManifest.xml:22:5-23:19
	android:appComponentFactory
		ADDED from [com.android.support:support-compat:28.0.0] C:\Users\PaulineBERTA\.gradle\caches\transforms-1\files-1.1\support-compat-28.0.0.aar\ba007380d2c40b39665ddda7313448d1\AndroidManifest.xml:22:18-91
	android:label
		ADDED from C:\Qt\MP\ATSP\Application\build-atomic-Android_Qt_5_12_11_Clang_armeabi_v7a-Debug\android-build\AndroidManifest.xml:7:113-141
	android:hardwareAccelerated
		ADDED from C:\Qt\MP\ATSP\Application\build-atomic-Android_Qt_5_12_11_Clang_armeabi_v7a-Debug\android-build\AndroidManifest.xml:7:14-48
	android:resizeableActivity
		ADDED from C:\Qt\MP\ATSP\Application\build-atomic-Android_Qt_5_12_11_Clang_armeabi_v7a-Debug\android-build\AndroidManifest.xml:7:172-206
	android:icon
		ADDED from C:\Qt\MP\ATSP\Application\build-atomic-Android_Qt_5_12_11_Clang_armeabi_v7a-Debug\android-build\AndroidManifest.xml:7:142-171
	android:name
		ADDED from C:\Qt\MP\ATSP\Application\build-atomic-Android_Qt_5_12_11_Clang_armeabi_v7a-Debug\android-build\AndroidManifest.xml:7:49-112
activity#org.qtproject.qt5.android.bindings.QtActivity
ADDED from C:\Qt\MP\ATSP\Application\build-atomic-Android_Qt_5_12_11_Clang_armeabi_v7a-Debug\android-build\AndroidManifest.xml:9:9-77:16
	android:label
		ADDED from C:\Qt\MP\ATSP\Application\build-atomic-Android_Qt_5_12_11_Clang_armeabi_v7a-Debug\android-build\AndroidManifest.xml:9:250-278
	android:launchMode
		ADDED from C:\Qt\MP\ATSP\Application\build-atomic-Android_Qt_5_12_11_Clang_armeabi_v7a-Debug\android-build\AndroidManifest.xml:9:279-309
	android:configChanges
		ADDED from C:\Qt\MP\ATSP\Application\build-atomic-Android_Qt_5_12_11_Clang_armeabi_v7a-Debug\android-build\AndroidManifest.xml:9:19-188
	android:name
		ADDED from C:\Qt\MP\ATSP\Application\build-atomic-Android_Qt_5_12_11_Clang_armeabi_v7a-Debug\android-build\AndroidManifest.xml:9:189-249
intent-filter#action:name:android.hardware.usb.action.USB_DEVICE_ATTACHED+action:name:android.intent.action.MAIN+category:name:android.intent.category.LAUNCHER
ADDED from C:\Qt\MP\ATSP\Application\build-atomic-Android_Qt_5_12_11_Clang_armeabi_v7a-Debug\android-build\AndroidManifest.xml:14:13-18:29
action#android.hardware.usb.action.USB_DEVICE_ATTACHED
ADDED from C:\Qt\MP\ATSP\Application\build-atomic-Android_Qt_5_12_11_Clang_armeabi_v7a-Debug\android-build\AndroidManifest.xml:15:17-89
	android:name
		ADDED from C:\Qt\MP\ATSP\Application\build-atomic-Android_Qt_5_12_11_Clang_armeabi_v7a-Debug\android-build\AndroidManifest.xml:15:25-87
action#android.intent.action.MAIN
ADDED from C:\Qt\MP\ATSP\Application\build-atomic-Android_Qt_5_12_11_Clang_armeabi_v7a-Debug\android-build\AndroidManifest.xml:16:17-68
	android:name
		ADDED from C:\Qt\MP\ATSP\Application\build-atomic-Android_Qt_5_12_11_Clang_armeabi_v7a-Debug\android-build\AndroidManifest.xml:16:25-66
category#android.intent.category.LAUNCHER
ADDED from C:\Qt\MP\ATSP\Application\build-atomic-Android_Qt_5_12_11_Clang_armeabi_v7a-Debug\android-build\AndroidManifest.xml:17:17-76
	android:name
		ADDED from C:\Qt\MP\ATSP\Application\build-atomic-Android_Qt_5_12_11_Clang_armeabi_v7a-Debug\android-build\AndroidManifest.xml:17:27-74
meta-data#android.hardware.usb.action.USB_DEVICE_ATTACHED
ADDED from C:\Qt\MP\ATSP\Application\build-atomic-Android_Qt_5_12_11_Clang_armeabi_v7a-Debug\android-build\AndroidManifest.xml:20:13-129
	android:resource
		ADDED from C:\Qt\MP\ATSP\Application\build-atomic-Android_Qt_5_12_11_Clang_armeabi_v7a-Debug\android-build\AndroidManifest.xml:20:87-127
	android:name
		ADDED from C:\Qt\MP\ATSP\Application\build-atomic-Android_Qt_5_12_11_Clang_armeabi_v7a-Debug\android-build\AndroidManifest.xml:20:24-86
meta-data#android.app.lib_name
ADDED from C:\Qt\MP\ATSP\Application\build-atomic-Android_Qt_5_12_11_Clang_armeabi_v7a-Debug\android-build\AndroidManifest.xml:26:13-84
	android:value
		ADDED from C:\Qt\MP\ATSP\Application\build-atomic-Android_Qt_5_12_11_Clang_armeabi_v7a-Debug\android-build\AndroidManifest.xml:26:60-82
	android:name
		ADDED from C:\Qt\MP\ATSP\Application\build-atomic-Android_Qt_5_12_11_Clang_armeabi_v7a-Debug\android-build\AndroidManifest.xml:26:24-59
meta-data#android.app.qt_sources_resource_id
ADDED from C:\Qt\MP\ATSP\Application\build-atomic-Android_Qt_5_12_11_Clang_armeabi_v7a-Debug\android-build\AndroidManifest.xml:27:13-112
	android:resource
		ADDED from C:\Qt\MP\ATSP\Application\build-atomic-Android_Qt_5_12_11_Clang_armeabi_v7a-Debug\android-build\AndroidManifest.xml:27:74-110
	android:name
		ADDED from C:\Qt\MP\ATSP\Application\build-atomic-Android_Qt_5_12_11_Clang_armeabi_v7a-Debug\android-build\AndroidManifest.xml:27:24-73
meta-data#android.app.repository
ADDED from C:\Qt\MP\ATSP\Application\build-atomic-Android_Qt_5_12_11_Clang_armeabi_v7a-Debug\android-build\AndroidManifest.xml:28:13-87
	android:value
		ADDED from C:\Qt\MP\ATSP\Application\build-atomic-Android_Qt_5_12_11_Clang_armeabi_v7a-Debug\android-build\AndroidManifest.xml:28:62-85
	android:name
		ADDED from C:\Qt\MP\ATSP\Application\build-atomic-Android_Qt_5_12_11_Clang_armeabi_v7a-Debug\android-build\AndroidManifest.xml:28:24-61
meta-data#android.app.qt_libs_resource_id
ADDED from C:\Qt\MP\ATSP\Application\build-atomic-Android_Qt_5_12_11_Clang_armeabi_v7a-Debug\android-build\AndroidManifest.xml:29:13-106
	android:resource
		ADDED from C:\Qt\MP\ATSP\Application\build-atomic-Android_Qt_5_12_11_Clang_armeabi_v7a-Debug\android-build\AndroidManifest.xml:29:71-104
	android:name
		ADDED from C:\Qt\MP\ATSP\Application\build-atomic-Android_Qt_5_12_11_Clang_armeabi_v7a-Debug\android-build\AndroidManifest.xml:29:24-70
meta-data#android.app.bundled_libs_resource_id
ADDED from C:\Qt\MP\ATSP\Application\build-atomic-Android_Qt_5_12_11_Clang_armeabi_v7a-Debug\android-build\AndroidManifest.xml:30:13-116
	android:resource
		ADDED from C:\Qt\MP\ATSP\Application\build-atomic-Android_Qt_5_12_11_Clang_armeabi_v7a-Debug\android-build\AndroidManifest.xml:30:76-114
	android:name
		ADDED from C:\Qt\MP\ATSP\Application\build-atomic-Android_Qt_5_12_11_Clang_armeabi_v7a-Debug\android-build\AndroidManifest.xml:30:24-75
meta-data#android.app.bundle_local_qt_libs
ADDED from C:\Qt\MP\ATSP\Application\build-atomic-Android_Qt_5_12_11_Clang_armeabi_v7a-Debug\android-build\AndroidManifest.xml:32:13-91
	android:value
		ADDED from C:\Qt\MP\ATSP\Application\build-atomic-Android_Qt_5_12_11_Clang_armeabi_v7a-Debug\android-build\AndroidManifest.xml:32:72-89
	android:name
		ADDED from C:\Qt\MP\ATSP\Application\build-atomic-Android_Qt_5_12_11_Clang_armeabi_v7a-Debug\android-build\AndroidManifest.xml:32:24-71
meta-data#android.app.bundled_in_lib_resource_id
ADDED from C:\Qt\MP\ATSP\Application\build-atomic-Android_Qt_5_12_11_Clang_armeabi_v7a-Debug\android-build\AndroidManifest.xml:33:13-120
	android:resource
		ADDED from C:\Qt\MP\ATSP\Application\build-atomic-Android_Qt_5_12_11_Clang_armeabi_v7a-Debug\android-build\AndroidManifest.xml:33:78-118
	android:name
		ADDED from C:\Qt\MP\ATSP\Application\build-atomic-Android_Qt_5_12_11_Clang_armeabi_v7a-Debug\android-build\AndroidManifest.xml:33:24-77
meta-data#android.app.bundled_in_assets_resource_id
ADDED from C:\Qt\MP\ATSP\Application\build-atomic-Android_Qt_5_12_11_Clang_armeabi_v7a-Debug\android-build\AndroidManifest.xml:34:13-126
	android:resource
		ADDED from C:\Qt\MP\ATSP\Application\build-atomic-Android_Qt_5_12_11_Clang_armeabi_v7a-Debug\android-build\AndroidManifest.xml:34:81-124
	android:name
		ADDED from C:\Qt\MP\ATSP\Application\build-atomic-Android_Qt_5_12_11_Clang_armeabi_v7a-Debug\android-build\AndroidManifest.xml:34:24-80
meta-data#android.app.use_local_qt_libs
ADDED from C:\Qt\MP\ATSP\Application\build-atomic-Android_Qt_5_12_11_Clang_armeabi_v7a-Debug\android-build\AndroidManifest.xml:36:13-88
	android:value
		ADDED from C:\Qt\MP\ATSP\Application\build-atomic-Android_Qt_5_12_11_Clang_armeabi_v7a-Debug\android-build\AndroidManifest.xml:36:69-86
	android:name
		ADDED from C:\Qt\MP\ATSP\Application\build-atomic-Android_Qt_5_12_11_Clang_armeabi_v7a-Debug\android-build\AndroidManifest.xml:36:24-68
meta-data#android.app.libs_prefix
ADDED from C:\Qt\MP\ATSP\Application\build-atomic-Android_Qt_5_12_11_Clang_armeabi_v7a-Debug\android-build\AndroidManifest.xml:37:13-100
	android:value
		ADDED from C:\Qt\MP\ATSP\Application\build-atomic-Android_Qt_5_12_11_Clang_armeabi_v7a-Debug\android-build\AndroidManifest.xml:37:63-98
	android:name
		ADDED from C:\Qt\MP\ATSP\Application\build-atomic-Android_Qt_5_12_11_Clang_armeabi_v7a-Debug\android-build\AndroidManifest.xml:37:24-62
meta-data#android.app.load_local_libs
ADDED from C:\Qt\MP\ATSP\Application\build-atomic-Android_Qt_5_12_11_Clang_armeabi_v7a-Debug\android-build\AndroidManifest.xml:38:13-193
	android:value
		ADDED from C:\Qt\MP\ATSP\Application\build-atomic-Android_Qt_5_12_11_Clang_armeabi_v7a-Debug\android-build\AndroidManifest.xml:38:67-191
	android:name
		ADDED from C:\Qt\MP\ATSP\Application\build-atomic-Android_Qt_5_12_11_Clang_armeabi_v7a-Debug\android-build\AndroidManifest.xml:38:24-66
meta-data#android.app.load_local_jars
ADDED from C:\Qt\MP\ATSP\Application\build-atomic-Android_Qt_5_12_11_Clang_armeabi_v7a-Debug\android-build\AndroidManifest.xml:39:13-150
	android:value
		ADDED from C:\Qt\MP\ATSP\Application\build-atomic-Android_Qt_5_12_11_Clang_armeabi_v7a-Debug\android-build\AndroidManifest.xml:39:67-148
	android:name
		ADDED from C:\Qt\MP\ATSP\Application\build-atomic-Android_Qt_5_12_11_Clang_armeabi_v7a-Debug\android-build\AndroidManifest.xml:39:24-66
meta-data#android.app.static_init_classes
ADDED from C:\Qt\MP\ATSP\Application\build-atomic-Android_Qt_5_12_11_Clang_armeabi_v7a-Debug\android-build\AndroidManifest.xml:40:13-89
	android:value
		ADDED from C:\Qt\MP\ATSP\Application\build-atomic-Android_Qt_5_12_11_Clang_armeabi_v7a-Debug\android-build\AndroidManifest.xml:40:71-87
	android:name
		ADDED from C:\Qt\MP\ATSP\Application\build-atomic-Android_Qt_5_12_11_Clang_armeabi_v7a-Debug\android-build\AndroidManifest.xml:40:24-70
meta-data#android.app.ministro_not_found_msg
ADDED from C:\Qt\MP\ATSP\Application\build-atomic-Android_Qt_5_12_11_Clang_armeabi_v7a-Debug\android-build\AndroidManifest.xml:44:13-122
	android:value
		ADDED from C:\Qt\MP\ATSP\Application\build-atomic-Android_Qt_5_12_11_Clang_armeabi_v7a-Debug\android-build\AndroidManifest.xml:44:24-70
	android:name
		ADDED from C:\Qt\MP\ATSP\Application\build-atomic-Android_Qt_5_12_11_Clang_armeabi_v7a-Debug\android-build\AndroidManifest.xml:44:71-120
meta-data#android.app.ministro_needed_msg
ADDED from C:\Qt\MP\ATSP\Application\build-atomic-Android_Qt_5_12_11_Clang_armeabi_v7a-Debug\android-build\AndroidManifest.xml:45:13-116
	android:value
		ADDED from C:\Qt\MP\ATSP\Application\build-atomic-Android_Qt_5_12_11_Clang_armeabi_v7a-Debug\android-build\AndroidManifest.xml:45:24-67
	android:name
		ADDED from C:\Qt\MP\ATSP\Application\build-atomic-Android_Qt_5_12_11_Clang_armeabi_v7a-Debug\android-build\AndroidManifest.xml:45:68-114
meta-data#android.app.fatal_error_msg
ADDED from C:\Qt\MP\ATSP\Application\build-atomic-Android_Qt_5_12_11_Clang_armeabi_v7a-Debug\android-build\AndroidManifest.xml:46:13-108
	android:value
		ADDED from C:\Qt\MP\ATSP\Application\build-atomic-Android_Qt_5_12_11_Clang_armeabi_v7a-Debug\android-build\AndroidManifest.xml:46:24-63
	android:name
		ADDED from C:\Qt\MP\ATSP\Application\build-atomic-Android_Qt_5_12_11_Clang_armeabi_v7a-Debug\android-build\AndroidManifest.xml:46:64-106
meta-data#android.app.background_running
ADDED from C:\Qt\MP\ATSP\Application\build-atomic-Android_Qt_5_12_11_Clang_armeabi_v7a-Debug\android-build\AndroidManifest.xml:59:13-92
	android:value
		ADDED from C:\Qt\MP\ATSP\Application\build-atomic-Android_Qt_5_12_11_Clang_armeabi_v7a-Debug\android-build\AndroidManifest.xml:59:70-90
	android:name
		ADDED from C:\Qt\MP\ATSP\Application\build-atomic-Android_Qt_5_12_11_Clang_armeabi_v7a-Debug\android-build\AndroidManifest.xml:59:24-69
meta-data#android.app.auto_screen_scale_factor
ADDED from C:\Qt\MP\ATSP\Application\build-atomic-Android_Qt_5_12_11_Clang_armeabi_v7a-Debug\android-build\AndroidManifest.xml:63:13-99
	android:value
		ADDED from C:\Qt\MP\ATSP\Application\build-atomic-Android_Qt_5_12_11_Clang_armeabi_v7a-Debug\android-build\AndroidManifest.xml:63:76-97
	android:name
		ADDED from C:\Qt\MP\ATSP\Application\build-atomic-Android_Qt_5_12_11_Clang_armeabi_v7a-Debug\android-build\AndroidManifest.xml:63:24-75
meta-data#android.app.extract_android_style
ADDED from C:\Qt\MP\ATSP\Application\build-atomic-Android_Qt_5_12_11_Clang_armeabi_v7a-Debug\android-build\AndroidManifest.xml:65:13-95
	android:value
		ADDED from C:\Qt\MP\ATSP\Application\build-atomic-Android_Qt_5_12_11_Clang_armeabi_v7a-Debug\android-build\AndroidManifest.xml:65:73-93
	android:name
		ADDED from C:\Qt\MP\ATSP\Application\build-atomic-Android_Qt_5_12_11_Clang_armeabi_v7a-Debug\android-build\AndroidManifest.xml:65:24-72
meta-data#android.app.splash_screen_drawable
ADDED from C:\Qt\MP\ATSP\Application\build-atomic-Android_Qt_5_12_11_Clang_armeabi_v7a-Debug\android-build\AndroidManifest.xml:75:13-111
	android:resource
		ADDED from C:\Qt\MP\ATSP\Application\build-atomic-Android_Qt_5_12_11_Clang_armeabi_v7a-Debug\android-build\AndroidManifest.xml:75:74-109
	android:name
		ADDED from C:\Qt\MP\ATSP\Application\build-atomic-Android_Qt_5_12_11_Clang_armeabi_v7a-Debug\android-build\AndroidManifest.xml:75:24-73
service#com.AllianTech.ATomicSound.ForegroundService
ADDED from C:\Qt\MP\ATSP\Application\build-atomic-Android_Qt_5_12_11_Clang_armeabi_v7a-Debug\android-build\AndroidManifest.xml:80:5-124:15
	android:process
		ADDED from C:\Qt\MP\ATSP\Application\build-atomic-Android_Qt_5_12_11_Clang_armeabi_v7a-Debug\android-build\AndroidManifest.xml:80:14-35
	android:enabled
		ADDED from C:\Qt\MP\ATSP\Application\build-atomic-Android_Qt_5_12_11_Clang_armeabi_v7a-Debug\android-build\AndroidManifest.xml:80:96-118
	android:exported
		ADDED from C:\Qt\MP\ATSP\Application\build-atomic-Android_Qt_5_12_11_Clang_armeabi_v7a-Debug\android-build\AndroidManifest.xml:80:119-142
	android:stopWithTask
		ADDED from C:\Qt\MP\ATSP\Application\build-atomic-Android_Qt_5_12_11_Clang_armeabi_v7a-Debug\android-build\AndroidManifest.xml:80:143-170
	android:name
		ADDED from C:\Qt\MP\ATSP\Application\build-atomic-Android_Qt_5_12_11_Clang_armeabi_v7a-Debug\android-build\AndroidManifest.xml:80:36-95
meta-data#android.app.arguments
ADDED from C:\Qt\MP\ATSP\Application\build-atomic-Android_Qt_5_12_11_Clang_armeabi_v7a-Debug\android-build\AndroidManifest.xml:83:9-83
	android:value
		ADDED from C:\Qt\MP\ATSP\Application\build-atomic-Android_Qt_5_12_11_Clang_armeabi_v7a-Debug\android-build\AndroidManifest.xml:83:57-81
	android:name
		ADDED from C:\Qt\MP\ATSP\Application\build-atomic-Android_Qt_5_12_11_Clang_armeabi_v7a-Debug\android-build\AndroidManifest.xml:83:20-56
uses-sdk
ADDED from C:\Qt\MP\ATSP\Application\build-atomic-Android_Qt_5_12_11_Clang_armeabi_v7a-Debug\android-build\AndroidManifest.xml:130:5-73
MERGED from [com.android.support:support-v4:28.0.0] C:\Users\PaulineBERTA\.gradle\caches\transforms-1\files-1.1\support-v4-28.0.0.aar\3b1a87f47296f990486a1eeaf84d90ee\AndroidManifest.xml:20:5-44
MERGED from [com.android.support:support-v4:28.0.0] C:\Users\PaulineBERTA\.gradle\caches\transforms-1\files-1.1\support-v4-28.0.0.aar\3b1a87f47296f990486a1eeaf84d90ee\AndroidManifest.xml:20:5-44
MERGED from [com.android.support:appcompat-v7:28.0.0] C:\Users\PaulineBERTA\.gradle\caches\transforms-1\files-1.1\appcompat-v7-28.0.0.aar\07df098e0e276194543bf623d3025814\AndroidManifest.xml:20:5-44
MERGED from [com.android.support:appcompat-v7:28.0.0] C:\Users\PaulineBERTA\.gradle\caches\transforms-1\files-1.1\appcompat-v7-28.0.0.aar\07df098e0e276194543bf623d3025814\AndroidManifest.xml:20:5-44
MERGED from [com.android.support:support-media-compat:28.0.0] C:\Users\PaulineBERTA\.gradle\caches\transforms-1\files-1.1\support-media-compat-28.0.0.aar\553f4f01f7c3bc4d60168f63666f44f3\AndroidManifest.xml:20:5-44
MERGED from [com.android.support:support-media-compat:28.0.0] C:\Users\PaulineBERTA\.gradle\caches\transforms-1\files-1.1\support-media-compat-28.0.0.aar\553f4f01f7c3bc4d60168f63666f44f3\AndroidManifest.xml:20:5-44
MERGED from [com.android.support:support-fragment:28.0.0] C:\Users\PaulineBERTA\.gradle\caches\transforms-1\files-1.1\support-fragment-28.0.0.aar\3bc4be949505e77dbd24ee8be7fe5897\AndroidManifest.xml:20:5-44
MERGED from [com.android.support:support-fragment:28.0.0] C:\Users\PaulineBERTA\.gradle\caches\transforms-1\files-1.1\support-fragment-28.0.0.aar\3bc4be949505e77dbd24ee8be7fe5897\AndroidManifest.xml:20:5-44
MERGED from [com.android.support:animated-vector-drawable:28.0.0] C:\Users\PaulineBERTA\.gradle\caches\transforms-1\files-1.1\animated-vector-drawable-28.0.0.aar\d1423197ddd73472225852e94684ed6d\AndroidManifest.xml:20:5-44
MERGED from [com.android.support:animated-vector-drawable:28.0.0] C:\Users\PaulineBERTA\.gradle\caches\transforms-1\files-1.1\animated-vector-drawable-28.0.0.aar\d1423197ddd73472225852e94684ed6d\AndroidManifest.xml:20:5-44
MERGED from [com.android.support:support-core-ui:28.0.0] C:\Users\PaulineBERTA\.gradle\caches\transforms-1\files-1.1\support-core-ui-28.0.0.aar\8506b287158b16f5e176e351237ac07f\AndroidManifest.xml:20:5-44
MERGED from [com.android.support:support-core-ui:28.0.0] C:\Users\PaulineBERTA\.gradle\caches\transforms-1\files-1.1\support-core-ui-28.0.0.aar\8506b287158b16f5e176e351237ac07f\AndroidManifest.xml:20:5-44
MERGED from [com.android.support:support-core-utils:28.0.0] C:\Users\PaulineBERTA\.gradle\caches\transforms-1\files-1.1\support-core-utils-28.0.0.aar\a4d816ea0ee00e0994134211a8328a5d\AndroidManifest.xml:20:5-44
MERGED from [com.android.support:support-core-utils:28.0.0] C:\Users\PaulineBERTA\.gradle\caches\transforms-1\files-1.1\support-core-utils-28.0.0.aar\a4d816ea0ee00e0994134211a8328a5d\AndroidManifest.xml:20:5-44
MERGED from [com.android.support:support-vector-drawable:28.0.0] C:\Users\PaulineBERTA\.gradle\caches\transforms-1\files-1.1\support-vector-drawable-28.0.0.aar\dcf43c69facf5ff306c2b46fa08a69a5\AndroidManifest.xml:20:5-44
MERGED from [com.android.support:support-vector-drawable:28.0.0] C:\Users\PaulineBERTA\.gradle\caches\transforms-1\files-1.1\support-vector-drawable-28.0.0.aar\dcf43c69facf5ff306c2b46fa08a69a5\AndroidManifest.xml:20:5-44
MERGED from [com.android.support:loader:28.0.0] C:\Users\PaulineBERTA\.gradle\caches\transforms-1\files-1.1\loader-28.0.0.aar\9ce0c60ec09c4d9690e32994ec9e9e60\AndroidManifest.xml:20:5-44
MERGED from [com.android.support:loader:28.0.0] C:\Users\PaulineBERTA\.gradle\caches\transforms-1\files-1.1\loader-28.0.0.aar\9ce0c60ec09c4d9690e32994ec9e9e60\AndroidManifest.xml:20:5-44
MERGED from [com.android.support:viewpager:28.0.0] C:\Users\PaulineBERTA\.gradle\caches\transforms-1\files-1.1\viewpager-28.0.0.aar\02e9745f0a087f01ce202310925f435b\AndroidManifest.xml:20:5-44
MERGED from [com.android.support:viewpager:28.0.0] C:\Users\PaulineBERTA\.gradle\caches\transforms-1\files-1.1\viewpager-28.0.0.aar\02e9745f0a087f01ce202310925f435b\AndroidManifest.xml:20:5-44
MERGED from [com.android.support:coordinatorlayout:28.0.0] C:\Users\PaulineBERTA\.gradle\caches\transforms-1\files-1.1\coordinatorlayout-28.0.0.aar\661ea7414487a2fad7e36d4af2e4545c\AndroidManifest.xml:20:5-44
MERGED from [com.android.support:coordinatorlayout:28.0.0] C:\Users\PaulineBERTA\.gradle\caches\transforms-1\files-1.1\coordinatorlayout-28.0.0.aar\661ea7414487a2fad7e36d4af2e4545c\AndroidManifest.xml:20:5-44
MERGED from [com.android.support:drawerlayout:28.0.0] C:\Users\PaulineBERTA\.gradle\caches\transforms-1\files-1.1\drawerlayout-28.0.0.aar\d2aae295655420bcd5b2bff8582b51ef\AndroidManifest.xml:20:5-44
MERGED from [com.android.support:drawerlayout:28.0.0] C:\Users\PaulineBERTA\.gradle\caches\transforms-1\files-1.1\drawerlayout-28.0.0.aar\d2aae295655420bcd5b2bff8582b51ef\AndroidManifest.xml:20:5-44
MERGED from [com.android.support:slidingpanelayout:28.0.0] C:\Users\PaulineBERTA\.gradle\caches\transforms-1\files-1.1\slidingpanelayout-28.0.0.aar\fe32d2fbe48117346e203b4656340f37\AndroidManifest.xml:20:5-44
MERGED from [com.android.support:slidingpanelayout:28.0.0] C:\Users\PaulineBERTA\.gradle\caches\transforms-1\files-1.1\slidingpanelayout-28.0.0.aar\fe32d2fbe48117346e203b4656340f37\AndroidManifest.xml:20:5-44
MERGED from [com.android.support:customview:28.0.0] C:\Users\PaulineBERTA\.gradle\caches\transforms-1\files-1.1\customview-28.0.0.aar\2857ab5281b05c490ddb1b9db245c32e\AndroidManifest.xml:20:5-44
MERGED from [com.android.support:customview:28.0.0] C:\Users\PaulineBERTA\.gradle\caches\transforms-1\files-1.1\customview-28.0.0.aar\2857ab5281b05c490ddb1b9db245c32e\AndroidManifest.xml:20:5-44
MERGED from [com.android.support:swiperefreshlayout:28.0.0] C:\Users\PaulineBERTA\.gradle\caches\transforms-1\files-1.1\swiperefreshlayout-28.0.0.aar\3a0570ab0da7ba40e96cbc81c4342348\AndroidManifest.xml:20:5-44
MERGED from [com.android.support:swiperefreshlayout:28.0.0] C:\Users\PaulineBERTA\.gradle\caches\transforms-1\files-1.1\swiperefreshlayout-28.0.0.aar\3a0570ab0da7ba40e96cbc81c4342348\AndroidManifest.xml:20:5-44
MERGED from [com.android.support:asynclayoutinflater:28.0.0] C:\Users\PaulineBERTA\.gradle\caches\transforms-1\files-1.1\asynclayoutinflater-28.0.0.aar\ba522506652cc8523e77be208ce17555\AndroidManifest.xml:20:5-44
MERGED from [com.android.support:asynclayoutinflater:28.0.0] C:\Users\PaulineBERTA\.gradle\caches\transforms-1\files-1.1\asynclayoutinflater-28.0.0.aar\ba522506652cc8523e77be208ce17555\AndroidManifest.xml:20:5-44
MERGED from [com.android.support:support-compat:28.0.0] C:\Users\PaulineBERTA\.gradle\caches\transforms-1\files-1.1\support-compat-28.0.0.aar\ba007380d2c40b39665ddda7313448d1\AndroidManifest.xml:20:5-44
MERGED from [com.android.support:support-compat:28.0.0] C:\Users\PaulineBERTA\.gradle\caches\transforms-1\files-1.1\support-compat-28.0.0.aar\ba007380d2c40b39665ddda7313448d1\AndroidManifest.xml:20:5-44
MERGED from [com.android.support:versionedparcelable:28.0.0] C:\Users\PaulineBERTA\.gradle\caches\transforms-1\files-1.1\versionedparcelable-28.0.0.aar\d600333a34df2a3eb87e70e91d9c4bbd\AndroidManifest.xml:20:5-44
MERGED from [com.android.support:versionedparcelable:28.0.0] C:\Users\PaulineBERTA\.gradle\caches\transforms-1\files-1.1\versionedparcelable-28.0.0.aar\d600333a34df2a3eb87e70e91d9c4bbd\AndroidManifest.xml:20:5-44
MERGED from [com.android.support:cursoradapter:28.0.0] C:\Users\PaulineBERTA\.gradle\caches\transforms-1\files-1.1\cursoradapter-28.0.0.aar\280caf606907bfcd20a0e0b63a5271db\AndroidManifest.xml:20:5-44
MERGED from [com.android.support:cursoradapter:28.0.0] C:\Users\PaulineBERTA\.gradle\caches\transforms-1\files-1.1\cursoradapter-28.0.0.aar\280caf606907bfcd20a0e0b63a5271db\AndroidManifest.xml:20:5-44
MERGED from [android.arch.lifecycle:runtime:1.1.1] C:\Users\PaulineBERTA\.gradle\caches\transforms-1\files-1.1\runtime-1.1.1.aar\773cad237599956d3e9bafcb0ed9cc58\AndroidManifest.xml:20:5-44
MERGED from [android.arch.lifecycle:runtime:1.1.1] C:\Users\PaulineBERTA\.gradle\caches\transforms-1\files-1.1\runtime-1.1.1.aar\773cad237599956d3e9bafcb0ed9cc58\AndroidManifest.xml:20:5-44
MERGED from [com.android.support:documentfile:28.0.0] C:\Users\PaulineBERTA\.gradle\caches\transforms-1\files-1.1\documentfile-28.0.0.aar\5afdfeb1fb8872f706da513ebef52617\AndroidManifest.xml:20:5-44
MERGED from [com.android.support:documentfile:28.0.0] C:\Users\PaulineBERTA\.gradle\caches\transforms-1\files-1.1\documentfile-28.0.0.aar\5afdfeb1fb8872f706da513ebef52617\AndroidManifest.xml:20:5-44
MERGED from [com.android.support:localbroadcastmanager:28.0.0] C:\Users\PaulineBERTA\.gradle\caches\transforms-1\files-1.1\localbroadcastmanager-28.0.0.aar\bf34ee56bbe0b28b7480391b1e18e1ea\AndroidManifest.xml:20:5-44
MERGED from [com.android.support:localbroadcastmanager:28.0.0] C:\Users\PaulineBERTA\.gradle\caches\transforms-1\files-1.1\localbroadcastmanager-28.0.0.aar\bf34ee56bbe0b28b7480391b1e18e1ea\AndroidManifest.xml:20:5-44
MERGED from [com.android.support:print:28.0.0] C:\Users\PaulineBERTA\.gradle\caches\transforms-1\files-1.1\print-28.0.0.aar\f47f25f72b034b4af72b3e767ffc0b87\AndroidManifest.xml:20:5-44
MERGED from [com.android.support:print:28.0.0] C:\Users\PaulineBERTA\.gradle\caches\transforms-1\files-1.1\print-28.0.0.aar\f47f25f72b034b4af72b3e767ffc0b87\AndroidManifest.xml:20:5-44
MERGED from [com.android.support:interpolator:28.0.0] C:\Users\PaulineBERTA\.gradle\caches\transforms-1\files-1.1\interpolator-28.0.0.aar\e94d858a3f8b7beb0f627521d959f3b1\AndroidManifest.xml:20:5-44
MERGED from [com.android.support:interpolator:28.0.0] C:\Users\PaulineBERTA\.gradle\caches\transforms-1\files-1.1\interpolator-28.0.0.aar\e94d858a3f8b7beb0f627521d959f3b1\AndroidManifest.xml:20:5-44
MERGED from [android.arch.lifecycle:viewmodel:1.1.1] C:\Users\PaulineBERTA\.gradle\caches\transforms-1\files-1.1\viewmodel-1.1.1.aar\24798652533ef04fc960abce1edbad61\AndroidManifest.xml:20:5-44
MERGED from [android.arch.lifecycle:viewmodel:1.1.1] C:\Users\PaulineBERTA\.gradle\caches\transforms-1\files-1.1\viewmodel-1.1.1.aar\24798652533ef04fc960abce1edbad61\AndroidManifest.xml:20:5-44
MERGED from [android.arch.lifecycle:livedata:1.1.1] C:\Users\PaulineBERTA\.gradle\caches\transforms-1\files-1.1\livedata-1.1.1.aar\3b41b2a799dd3dc741a2e67f0c98933e\AndroidManifest.xml:20:5-44
MERGED from [android.arch.lifecycle:livedata:1.1.1] C:\Users\PaulineBERTA\.gradle\caches\transforms-1\files-1.1\livedata-1.1.1.aar\3b41b2a799dd3dc741a2e67f0c98933e\AndroidManifest.xml:20:5-44
MERGED from [android.arch.lifecycle:livedata-core:1.1.1] C:\Users\PaulineBERTA\.gradle\caches\transforms-1\files-1.1\livedata-core-1.1.1.aar\26d1c5965416894186b3da0548803232\AndroidManifest.xml:20:5-44
MERGED from [android.arch.lifecycle:livedata-core:1.1.1] C:\Users\PaulineBERTA\.gradle\caches\transforms-1\files-1.1\livedata-core-1.1.1.aar\26d1c5965416894186b3da0548803232\AndroidManifest.xml:20:5-44
MERGED from [android.arch.core:runtime:1.1.1] C:\Users\PaulineBERTA\.gradle\caches\transforms-1\files-1.1\runtime-1.1.1.aar\12e0cb2f586bc367aa6f82d0014e4732\AndroidManifest.xml:20:5-44
MERGED from [android.arch.core:runtime:1.1.1] C:\Users\PaulineBERTA\.gradle\caches\transforms-1\files-1.1\runtime-1.1.1.aar\12e0cb2f586bc367aa6f82d0014e4732\AndroidManifest.xml:20:5-44
	android:targetSdkVersion
		ADDED from C:\Qt\MP\ATSP\Application\build-atomic-Android_Qt_5_12_11_Clang_armeabi_v7a-Debug\android-build\AndroidManifest.xml:130:42-71
	android:minSdkVersion
		ADDED from C:\Qt\MP\ATSP\Application\build-atomic-Android_Qt_5_12_11_Clang_armeabi_v7a-Debug\android-build\AndroidManifest.xml:130:15-41
supports-screens
ADDED from C:\Qt\MP\ATSP\Application\build-atomic-Android_Qt_5_12_11_Clang_armeabi_v7a-Debug\android-build\AndroidManifest.xml:131:5-135
	android:largeScreens
		ADDED from C:\Qt\MP\ATSP\Application\build-atomic-Android_Qt_5_12_11_Clang_armeabi_v7a-Debug\android-build\AndroidManifest.xml:131:23-50
	android:smallScreens
		ADDED from C:\Qt\MP\ATSP\Application\build-atomic-Android_Qt_5_12_11_Clang_armeabi_v7a-Debug\android-build\AndroidManifest.xml:131:106-133
	android:normalScreens
		ADDED from C:\Qt\MP\ATSP\Application\build-atomic-Android_Qt_5_12_11_Clang_armeabi_v7a-Debug\android-build\AndroidManifest.xml:131:51-79
	android:anyDensity
		ADDED from C:\Qt\MP\ATSP\Application\build-atomic-Android_Qt_5_12_11_Clang_armeabi_v7a-Debug\android-build\AndroidManifest.xml:131:80-105
uses-permission#android.permission.INTERNET
ADDED from C:\Qt\MP\ATSP\Application\build-atomic-Android_Qt_5_12_11_Clang_armeabi_v7a-Debug\android-build\AndroidManifest.xml:135:9-71
	android:name
		ADDED from C:\Qt\MP\ATSP\Application\build-atomic-Android_Qt_5_12_11_Clang_armeabi_v7a-Debug\android-build\AndroidManifest.xml:135:26-68
uses-permission#android.permission.WRITE_EXTERNAL_STORAGE
ADDED from C:\Qt\MP\ATSP\Application\build-atomic-Android_Qt_5_12_11_Clang_armeabi_v7a-Debug\android-build\AndroidManifest.xml:136:5-81
	android:name
		ADDED from C:\Qt\MP\ATSP\Application\build-atomic-Android_Qt_5_12_11_Clang_armeabi_v7a-Debug\android-build\AndroidManifest.xml:136:22-78
uses-permission#android.permission.ACCESS_NETWORK_STATE
ADDED from C:\Qt\MP\ATSP\Application\build-atomic-Android_Qt_5_12_11_Clang_armeabi_v7a-Debug\android-build\AndroidManifest.xml:137:5-79
	android:name
		ADDED from C:\Qt\MP\ATSP\Application\build-atomic-Android_Qt_5_12_11_Clang_armeabi_v7a-Debug\android-build\AndroidManifest.xml:137:22-76
uses-feature#0x00020000
ADDED from C:\Qt\MP\ATSP\Application\build-atomic-Android_Qt_5_12_11_Clang_armeabi_v7a-Debug\android-build\AndroidManifest.xml:142:9-82
	android:glEsVersion
		ADDED from C:\Qt\MP\ATSP\Application\build-atomic-Android_Qt_5_12_11_Clang_armeabi_v7a-Debug\android-build\AndroidManifest.xml:142:23-55
	android:required
		ADDED from C:\Qt\MP\ATSP\Application\build-atomic-Android_Qt_5_12_11_Clang_armeabi_v7a-Debug\android-build\AndroidManifest.xml:142:56-79
uses-permission#android.permission.RECORD_AUDIO
ADDED from C:\Qt\MP\ATSP\Application\build-atomic-Android_Qt_5_12_11_Clang_armeabi_v7a-Debug\android-build\AndroidManifest.xml:143:1-66
	android:name
		ADDED from C:\Qt\MP\ATSP\Application\build-atomic-Android_Qt_5_12_11_Clang_armeabi_v7a-Debug\android-build\AndroidManifest.xml:143:18-64
uses-permission#android.permission.READ_EXTERNAL_STORAGE
ADDED from C:\Qt\MP\ATSP\Application\build-atomic-Android_Qt_5_12_11_Clang_armeabi_v7a-Debug\android-build\AndroidManifest.xml:145:1-75
	android:name
		ADDED from C:\Qt\MP\ATSP\Application\build-atomic-Android_Qt_5_12_11_Clang_armeabi_v7a-Debug\android-build\AndroidManifest.xml:145:18-73
uses-permission#android.permission.WAKE_LOCK
ADDED from C:\Qt\MP\ATSP\Application\build-atomic-Android_Qt_5_12_11_Clang_armeabi_v7a-Debug\android-build\AndroidManifest.xml:146:1-63
	android:name
		ADDED from C:\Qt\MP\ATSP\Application\build-atomic-Android_Qt_5_12_11_Clang_armeabi_v7a-Debug\android-build\AndroidManifest.xml:146:18-61
